hyperparameter-tuning
…
Above is a visual of the selected predictors alongside the minimal node size. It looks like it ebs and flows as it progresses. The rsq also slowly decreases.

collect_metrics(model_params) %>%
  filter(.metric == "mae") %>%
  arrange(mean)

# A tibble: 25 × 8
    mtry min_n .metric .estimator  mean     n std_err .config              
   <int> <int> <chr>   <chr>      <dbl> <int>   <dbl> <chr>                
 1    25     8 mae     standard   0.101     5  0.0117 Preprocessor1_Model13
 2    17     3 mae     standard   0.109     5  0.0125 Preprocessor1_Model09
 3    35     9 mae     standard   0.109     5  0.0147 Preprocessor1_Model18
 4    27    16 mae     standard   0.109     5  0.0112 Preprocessor1_Model14
 5    33     2 mae     standard   0.110     5  0.0147 Preprocessor1_Model17
 6    15    11 mae     standard   0.111     5  0.0126 Preprocessor1_Model08
 7    47    14 mae     standard   0.112     5  0.0145 Preprocessor1_Model24
 8    43     6 mae     standard   0.113     5  0.0105 Preprocessor1_Model22
 9    19    21 mae     standard   0.114     5  0.0127 Preprocessor1_Model10
10    45    22 mae     standard   0.118     5  0.0122 Preprocessor1_Model23
# ℹ 15 more rows
…
